<?xml version="1.0" encoding="utf-8"?>
<!-- Generator: Adobe Illustrator 23.0.2, SVG Export Plug-In . SVG Version: 6.00 Build 0)  -->
<!DOCTYPE svg PUBLIC "-//W3C//DTD SVG 1.1//EN" "http://www.w3.org/Graphics/SVG/1.1/DTD/svg11.dtd" [
	<!ENTITY ns_extend "http://ns.adobe.com/Extensibility/1.0/">
	<!ENTITY ns_ai "http://ns.adobe.com/AdobeIllustrator/10.0/">
	<!ENTITY ns_graphs "http://ns.adobe.com/Graphs/1.0/">
	<!ENTITY ns_vars "http://ns.adobe.com/Variables/1.0/">
	<!ENTITY ns_imrep "http://ns.adobe.com/ImageReplacement/1.0/">
	<!ENTITY ns_sfw "http://ns.adobe.com/SaveForWeb/1.0/">
	<!ENTITY ns_custom "http://ns.adobe.com/GenericCustomNamespace/1.0/">
	<!ENTITY ns_adobe_xpath "http://ns.adobe.com/XPath/1.0/">
]>
<svg version="1.1" id="Layer_1" xmlns:x="&ns_extend;" xmlns:i="&ns_ai;" xmlns:graph="&ns_graphs;"
	 xmlns="http://www.w3.org/2000/svg" xmlns:xlink="http://www.w3.org/1999/xlink" x="0px" y="0px" viewBox="0 0 135 40"
	 style="enable-background:new 0 0 135 40;" xml:space="preserve">
<style type="text/css">
	.st0{fill:#212121;}
	.st1{fill:#FFFFFF;stroke:#FFFFFF;stroke-width:0.2;stroke-miterlimit:10;}
	.st2{fill:#FFFFFF;}
	.st3{fill:url(#SVGID_1_);}
	.st4{fill:url(#SVGID_2_);}
	.st5{fill:url(#SVGID_3_);}
	.st6{fill:url(#SVGID_4_);}
	.st7{opacity:0.2;enable-background:new    ;}
	.st8{opacity:0.12;enable-background:new    ;}
	.st9{opacity:0.25;fill:#FFFFFF;enable-background:new    ;}
</style>
<metadata>
	<sfw  xmlns="&ns_sfw;">
		<slices></slices>
		<sliceSourceBounds  bottomLeftOrigin="true" height="40" width="135" x="0" y="0"></sliceSourceBounds>
	</sfw>
</metadata>
<g>
	<path class="st0" d="M6,0h123c3.3,0,6,2.7,6,6v28c0,3.3-2.7,6-6,6H6c-3.3,0-6-2.7-6-6V6C0,2.7,2.7,0,6,0z"/>
	<path class="st1" d="M47.4,10.2c0,0.7-0.2,1.5-0.7,2c-0.6,0.6-1.4,0.9-2.2,0.9c-1.7,0-3.1-1.4-3.1-3.2c0-0.8,0.3-1.6,0.9-2.2
		c0.6-0.6,1.4-0.9,2.2-0.9c0.4,0,0.8,0.1,1.2,0.3c0.4,0.1,0.7,0.4,0.9,0.7l-0.5,0.5c-0.4-0.5-1-0.7-1.6-0.7c-1.3,0-2.3,1-2.3,2.3
		c0,0,0,0.1,0,0.1c0,1.3,1,2.4,2.3,2.4c0.6,0,1.2-0.2,1.7-0.7c0.3-0.3,0.5-0.8,0.5-1.2h-2.2V9.8h2.9C47.4,9.9,47.4,10.1,47.4,10.2z"
		/>
	<path class="st1" d="M52,7.7h-2.7v1.9h2.5v0.7h-2.5v1.9H52V13h-3.5V7H52L52,7.7z"/>
	<path class="st1" d="M55.3,13h-0.8V7.7h-1.7V7H57v0.7h-1.7V13z"/>
	<path class="st1" d="M59.9,13V7h0.8v6H59.9z"/>
	<path class="st1" d="M64.1,13h-0.8V7.7h-1.7V7h4.1v0.7h-1.7V13z"/>
	<path class="st1" d="M73.6,12.2c-1.2,1.2-3.2,1.2-4.4,0C68,11,68,9,69.2,7.8c1.2-1.2,3.2-1.2,4.4,0c0,0,0,0,0,0
		C74.8,9,74.8,11,73.6,12.2z M69.8,11.7c0.9,0.9,2.4,0.9,3.3,0c0.9-1,0.9-2.5,0-3.4c-0.9-0.9-2.4-0.9-3.3,0
		C68.9,9.3,68.9,10.7,69.8,11.7z"/>
	<path class="st1" d="M75.6,13V7h0.9l2.9,4.7h0l0-1.2V7h0.8v6h-0.8l-3.1-4.9h0l0,1.2V13H75.6z"/>
	<path class="st2" d="M68.1,21.8c-2.3,0-4.2,1.9-4.2,4.3c0,2.3,1.9,4.2,4.3,4.2c2.3,0,4.2-1.9,4.2-4.3c0-2.3-1.8-4.2-4.1-4.3
		C68.2,21.8,68.2,21.8,68.1,21.8z M68.1,28.6c-1.4,0.1-2.7-1-2.8-2.4c-0.1-1.4,1-2.7,2.4-2.8c1.4-0.1,2.7,1,2.8,2.4
		c0,0.1,0,0.1,0,0.2C70.6,27.4,69.6,28.5,68.1,28.6C68.2,28.6,68.2,28.6,68.1,28.6z M58.8,21.8c-2.3,0-4.2,1.9-4.2,4.3
		s1.9,4.2,4.3,4.2c2.3,0,4.2-1.9,4.2-4.3c0-2.3-1.8-4.2-4.1-4.3C58.9,21.8,58.9,21.8,58.8,21.8z M58.8,28.6c-1.4,0.1-2.7-1-2.8-2.4
		c-0.1-1.4,1-2.7,2.4-2.8c1.4-0.1,2.7,1,2.8,2.4c0,0.1,0,0.1,0,0.2C61.3,27.4,60.2,28.5,58.8,28.6C58.9,28.6,58.8,28.6,58.8,28.6z
		 M47.7,23.1v1.8h4.3c-0.1,0.8-0.4,1.6-1,2.3c-0.9,0.9-2.1,1.4-3.3,1.3c-2.7,0-4.8-2.2-4.7-4.9c0-2.6,2.1-4.7,4.7-4.7
		c1.2,0,2.4,0.4,3.3,1.3l1.3-1.3c-1.2-1.2-2.8-1.8-4.5-1.8c-3.6-0.1-6.6,2.9-6.7,6.5c-0.1,3.6,2.9,6.6,6.5,6.7c0.1,0,0.1,0,0.2,0
		c1.7,0.1,3.4-0.6,4.6-1.9c1.1-1.1,1.6-2.7,1.6-4.2c0-0.4,0-0.8-0.1-1.1L47.7,23.1z M93.1,24.5c-0.5-1.6-2-2.7-3.6-2.7
		c-2.2,0-4,1.8-4,4.1c0,0.1,0,0.1,0,0.2c-0.1,2.3,1.8,4.2,4.1,4.3c0.1,0,0.1,0,0.2,0c1.4,0,2.8-0.7,3.5-1.9l-1.4-1
		c-0.4,0.7-1.2,1.2-2.1,1.2c-0.9,0-1.7-0.5-2.1-1.3l5.7-2.4L93.1,24.5z M87.3,25.9c-0.1-1.3,0.9-2.4,2.2-2.5c0,0,0,0,0,0
		c0.7,0,1.3,0.3,1.6,0.9L87.3,25.9z M82.6,30h1.9V17.5h-1.9V30z M79.6,22.7L79.6,22.7c-0.6-0.6-1.5-1-2.3-1
		c-2.3,0.1-4.2,2.1-4.1,4.4c0.1,2.2,1.9,4,4.1,4.1c0.9,0,1.7-0.3,2.2-1h0.1v0.6c0,1.6-0.9,2.5-2.3,2.5c-1,0-1.8-0.6-2.1-1.5
		l-1.6,0.7c0.6,1.5,2.1,2.5,3.8,2.5c2.2,0,4-1.3,4-4.4V22h-1.8L79.6,22.7z M77.4,28.6c-1.4-0.1-2.5-1.4-2.4-2.8
		c0.1-1.3,1.1-2.3,2.4-2.4c1.3,0.1,2.3,1.2,2.3,2.5c0,0,0,0.1,0,0.1C79.8,27.3,78.8,28.5,77.4,28.6C77.5,28.6,77.5,28.6,77.4,28.6z
		 M101.8,17.5h-4.5V30h1.9v-4.7h2.6c2.1,0.1,4-1.5,4.1-3.7s-1.5-4-3.7-4.1C102.1,17.5,101.9,17.5,101.8,17.5z M101.9,23.5h-2.7v-4.3
		h2.7c1.2,0,2.2,0.9,2.2,2.1C104.1,22.5,103.1,23.5,101.9,23.5C101.9,23.5,101.9,23.5,101.9,23.5z M113.4,21.7
		c-1.4-0.1-2.7,0.7-3.3,1.9l1.7,0.7c0.3-0.6,1-1,1.7-0.9c1-0.1,1.9,0.6,2,1.6v0.1c-0.6-0.3-1.3-0.5-1.9-0.5c-1.8,0-3.6,1-3.6,2.8
		c0.1,1.6,1.4,2.8,3,2.8c0,0,0.1,0,0.1,0c1,0.1,1.9-0.4,2.4-1.2h0.1v1h1.8v-4.8C117.2,23,115.5,21.7,113.4,21.7z M113.2,28.6
		c-0.6,0-1.5-0.3-1.5-1.1c0-1,1.1-1.3,2-1.3c0.6,0,1.2,0.1,1.7,0.4C115.2,27.7,114.3,28.6,113.2,28.6L113.2,28.6z M123.7,22
		l-2.1,5.4h-0.1l-2.2-5.4h-2l3.3,7.6l-1.9,4.2h1.9l5.1-11.8L123.7,22z M106.9,30h1.9V17.5h-1.9V30z"/>
	<g>
		
			<linearGradient id="SVGID_1_" gradientUnits="userSpaceOnUse" x1="34.7614" y1="318.2336" x2="20.2456" y2="332.7495" gradientTransform="matrix(1 0 0 1 -10.0001 -307.9999)">
			<stop  offset="0" style="stop-color:#00A0FF"/>
			<stop  offset="6.570000e-03" style="stop-color:#00A1FF"/>
			<stop  offset="0.2601" style="stop-color:#00BEFF"/>
			<stop  offset="0.5122" style="stop-color:#00D2FF"/>
			<stop  offset="0.7604" style="stop-color:#00DFFF"/>
			<stop  offset="1" style="stop-color:#00E3FF"/>
		</linearGradient>
		<path class="st3" d="M14.9,9.2c-0.3,0.3-0.4,0.8-0.4,1.2v19.1c0,0.4,0.1,0.9,0.4,1.2l0.1,0.1l10.7-10.7v-0.3L14.9,9.2L14.9,9.2z"
			/>
		
			<linearGradient id="SVGID_2_" gradientUnits="userSpaceOnUse" x1="45.1707" y1="328.0003" x2="24.2417" y2="328.0003" gradientTransform="matrix(1 0 0 1 -10.0001 -307.9999)">
			<stop  offset="0" style="stop-color:#FFE000"/>
			<stop  offset="0.4087" style="stop-color:#FFBD00"/>
			<stop  offset="0.7754" style="stop-color:#FFA500"/>
			<stop  offset="1" style="stop-color:#FF9C00"/>
		</linearGradient>
		<path class="st4" d="M29.3,23.7l-3.6-3.6v-0.3l3.6-3.6l0.1,0l4.2,2.4c1.2,0.7,1.2,1.8,0,2.5L29.3,23.7L29.3,23.7z"/>
		
			<linearGradient id="SVGID_3_" gradientUnits="userSpaceOnUse" x1="37.3798" y1="329.9851" x2="17.6951" y2="349.6697" gradientTransform="matrix(1 0 0 1 -10.0001 -307.9999)">
			<stop  offset="0" style="stop-color:#FF3A44"/>
			<stop  offset="1" style="stop-color:#C31162"/>
		</linearGradient>
		<path class="st5" d="M29.4,23.7L25.7,20L14.9,30.8c0.5,0.4,1.3,0.5,1.8,0.1L29.4,23.7"/>
		
			<linearGradient id="SVGID_4_" gradientUnits="userSpaceOnUse" x1="22.2176" y1="310.8526" x2="31.0077" y2="319.6426" gradientTransform="matrix(1 0 0 1 -10.0001 -307.9999)">
			<stop  offset="0" style="stop-color:#32A071"/>
			<stop  offset="6.850000e-02" style="stop-color:#2DA771"/>
			<stop  offset="0.4762" style="stop-color:#15CF74"/>
			<stop  offset="0.8009" style="stop-color:#06E775"/>
			<stop  offset="1" style="stop-color:#00F076"/>
		</linearGradient>
		<path class="st6" d="M29.4,16.3L16.7,9.2c-0.5-0.4-1.3-0.4-1.8,0.1L25.7,20L29.4,16.3z"/>
		<path class="st7" d="M29.3,23.6l-12.6,7.1c-0.5,0.4-1.2,0.4-1.7,0l0,0l-0.1,0.1l0,0l0.1,0.1l0,0c0.5,0.4,1.2,0.4,1.7,0L29.3,23.6
			L29.3,23.6z"/>
		<path class="st8" d="M14.9,30.7c-0.3-0.3-0.4-0.8-0.4-1.2v0.1c0,0.4,0.1,0.9,0.4,1.2V30.7L14.9,30.7z"/>
		<path class="st8" d="M33.6,21.1l-4.3,2.5l0.1,0.1l4.2-2.4c0.5-0.2,0.9-0.7,0.9-1.2l0,0C34.4,20.5,34.1,20.9,33.6,21.1z"/>
		<path class="st9" d="M16.7,9.3l16.9,9.6c0.5,0.2,0.8,0.6,0.9,1.1l0,0c-0.1-0.6-0.4-1-0.9-1.2L16.7,9.2c-1.2-0.7-2.2-0.1-2.2,1.3
			v0.1C14.5,9.2,15.5,8.6,16.7,9.3z"/>
	</g>
</g>
</svg>
